1,四级文章 篇一(1),"By 1970, according to a World Wildlife Fund report, only about 4500 tigers survived throughout the world-half of them in India. Mr. Foresters, who followed and counted tiger footprints, estimated that in May 1972 only about 1800 tigers existed in India. Project Tiger Supported by W.W.F. was immediately launched. Nine tiger reserves were created, with armed guards protecting them.",四级文章
2,四级文章 篇一(2),"The project provided opportunities for researchers from India and abroad to study tigers in the reserves and gather previously unavailable information about their habits. Studies show that a male tiger may control a hunting territory of between 10 and 20 square kilometers, depending on its age, size and strength. The territory of male includes the smaller territories of three or four tigresses. A tiger marks the boundaries of its territories by spraying urine and other bodily liquids on bushes. But it tries to avoid territorial fights, being guided by the distinctive body smell of other tigers. Tigers fight to death only when a tigress is defending her young, or when a tiger is guarding a tigress from the attentions of other males.",四级文章
3,四级文章 篇一(3),"The popular image of the tiger is that of a merciless and unconquerable hunter. But studies show that it catches only one of 20 victims it tries to attack.Fears have recently developed that Project Tiger has been too successful. It has enabled the tiger population to double (by mid-80s), but India's human population has also grown out of control. Currently it is 750 million and likely to be 900 million by the end of the century. Land problem is becoming serious and many rural people feel bitter about the fact that some rich forests are reserved for tigers. A growing number of attacks by tigers on man has added to the hostility .",四级文章
4,四级文章 篇二(1),"When global warming finally came, it stuck with avengeance.In some regions, temperatures rose several degrees in less than acentury. Sea levels shot up nearly 400 feet. flooding coastal settlements and forcing people to migrate inland. Deserts spread throughout the world asvegetation shifted drastically in North America. Europe and Asia. After driving many of the animals around them to near extinction, people were forced to abandon their old way of life for a radically new survival strategy that resulted in widespread starvation and disease. The adaptation was farming: the global-warming crisis that gave rise to it happened morethan 10000 years ago.",四级文章
5,四级文章 篇二(2),"As environmentalists convene in Rio de Janeiro this week to ponder the global climate of the future, earth scientists are in the midst of a revolution in understanding how climate has changed in the past-and how those changes have transformed human existence. Researchers have begun to piece together an illuminating picture of the powerful geological and astronomical forces that have combined to change the planet's environment from hot to cold, wet to dry and back again over a time period stretching back hundreds of millions of years.",四级文章
6,四级文章 篇二(3),"Most important. scientists are beginning to realize that the climatic changes have bad a major impact on the evolution of the human species. New research now suggests that climate shifts have played a key role in nearly every significant turning point in human evolution: from the dawn of primates some 65 million years ago to human ancestors rising up to walk on two legs. from the huge expansion of the human brain to the rise of agriculture. Indeed, the human history has not been merely touched by global climate change, some scientists argue, it has in some instances been driven by it.",四级文章
7,四级文章 篇二(4),"The new research has profound implications for the environment summit in Rio. Among other things, the findings demonstrate that dramatic climate change is nothing new for planet Earth. The benign global environment that has existed over the past 10,000 years-during which agriculture, writing, cities and most other features of civilization appeared-isa mere bright spot in a much larger pattern of widely varying climate over the ages. In fact, the pattern of climate change in the past reveals that Earth's climate will almost certainly go through dramatic changes in the future-even without the influence of human activity.",四级文章
8,四级文章 篇三(1),"Leonard da Vinci was a painter, a sculptor, anarchitect, a musician, an engineer, and a scientist. He was a man of many talents, a Renaissance man in the true sense of the word.　　Leonard was born at a small town near Florence, where he was apprenticed to a painter. But he soon surpassed his masters in uniting precision of linewith rhythm of movement, and in finding new ways to show light and shade.",四级文章
9,四级文章 篇三(2),"Although Leonard is generally known as a painter, his actual output was very small. In fact today only about twelve paintings are looked upon as having been done by him. This is because his diverse interest, his far-ranging curiosity in nature and his endless scientific experiments and designings. To understand the man one has therefore, to read the 5000 notebooks in which he put down his observations in life and his sketch drawings.",四级文章
10,四级文章 篇三(3),"Nevertheless, Leonard had profound understandings of art, which exerted great influence among the painters of his own generation and generations to follow. In painting he stressed the expression of emotional states, which, to him were, the heart of painting:""A good painter has two chief objects — to paint man and the intention of his soul. The formeris easy, the latter hard, for it must be expressed by gestures and the movement of the limbs. .. A painting will only be wonderful for the beholder by making that which is not so raisedand detached from the wall.""",四级文章
11,四级文章 篇三(4),"His major works: Last Supper, many European art masters have painted on the same subject. But none of their versions has been as impressive as da Vinci's. And none has the enduring value in the art world as his. Mona Lisa, if Last Supper is the most famous of religious pictures, then Mona Lisa probably isthe world's most famous portrait. Mona Lisa had as its model wife of a banker. The quietly folded hands, the gaze that is directed at the observer, the ambiguity of the“smile”togetherhelp to create a curious effect and a secret effect.",四级文章
12,四级文章 篇四(1),"Ludwig Van Beethoven1 was one of the greatestmusicians in the 19th century. John Lennon was one of the greatest musicians in the 20 th century. Although there is a period of about 200 years between them, they are quite similar in certainways. Both men expressed the spirit of their time in their music. Beethoven lived in the period of rising capitalism. At that time, people were trying to break the shackles of feudalism, and they were pursuing freedom, equality, and universallove. This social trend, especially the French revolution, greatly inspired Beethoven. His music was very active, passionate, and vigorous.",四级文章
13,四级文章 篇四(2),"Some of his works praised heroism, someconveyed the love for nature, and some extolled harmony among people. Similarly, Lennon'smusic revealed his time. In the 1960s and 1970 s, the youth in America were deeply frustratedby the discrimination and injustice in the society and were longing to build a new one . Mostof Lennon's songs expressed the ideas of the youth. In one of his songs entitled Imagine, hesings, ""Imagine all the people, living under peace"", and ""The world will be united together asone"". These words show his anti-war attitude and his hope for peace, and reflect the spirit ofthe 60s and 70s.",四级文章
14,四级文章 篇四(3),"Both men were social rebels to some extent. They refused to bow to social conventions andpower. Beethoven was a devoted republican. When Napoleon was in power, who claimed tobe a defender of republicanism, Beethoven admired him so much that he dedicated hisSymphony No.3, the theme of which is heroism, to him. But then Napoleon crowned himselfand became an emperor. Beethoven was so angry that he openly declared he took back whathe had said about Napoleon, regardless of possible persecution. Lennon was also considered atrouble-maker by the authorities because of his support for youth movements. For a time hewas not even allowed to give public performances. But he ignored all this and stuck to hisbelief.",四级文章
15,六级文章 篇一(1),"Nowadays,leaders the world over are busy mapping out blueprints for a new age with environmental protection high on their agenda. Sustainable development hits headlines almost every day. It is of utmost importance to restore the harmonious balance between man and nature,given the damage we've already done to it.
First of all, we must realize that man and nature are interactive.To begin with, we derive everything fromnature. Among other things,I'm sure you've all tasted natural produce that is otherwise known as green food. And you must have noticed that nearly all beautifying products boast of being natural creams,natural lotions or natural gels. For man,nature has an irresistible appeal.",六级文章
16,六级文章 篇一(2),"But on the other hand we must also realize that nature can be unruly.Nature is indeed like a riddle,some areas of which are beyond the reach of science and technology,at least in the foreseeable future. Nevertheless,the advancement of science and technology will still characterize the next millennium. The coming new age will provide many opportunities,but it will be likewise run of challenges. For instance,United Nations'demographers predict that global population could soar from its current 5.9 billion to as many as 11.2 billion by 2050.This will aggravate the current scarcity of natural resources caused by environmental degradation.More conflicts over this scarcity may occur with the ghost of nuclear wars always hiding in the background.",六级文章
17,六级文章 篇一(3),"To prevent this nightmare from coming true,governments need to work closely with each other and back up their verbal commitment by actions. However, it is not enough only to ask what governments can do toachieve the harmony between man and nature. We must ask ourselves what we as individuals can do.
Can we all be economical with food ,water,electricity or other resources? Can we,or rather,some greedy ones among us,stop making rare plants and animals into delicious dishes? Can we stop using the unrecyclable style of lunch boxes? If not,one day they may bury us in an ocean of white rubbish.After all,the earth is not a dustbin;it's our common home.",六级文章
18,六级文章 篇二(1),"“If our economies are to flourish,if global poverty is to be eliminated and if the well-being of the world’s people enhanced—not just in this generation but in succeeding generations—we must make sure we take care of the natural environment and resources on which our economic activity depends.”That statement comes not,as you might imagine,from a stereotypical tree-hugging,save-the-world greenie,but from Gordon Brown,a politician with a reputation for rigour,thoroughness and above all,caution.",六级文章
19,六级文章 篇二(2),"A surprising thing for the man who runs one of the world’s most powerful economies to say?Perhaps;though in the run-up to the five-year review of the Millennium Goals,he is far from alone.The roots of his speech,given in March at the roundtable meeting of environment and energy ministers from the G20 group of nations,stretch back to 1972,and the United Nations Conference on the Human Environment in Stockholm.",六级文章
20,六级文章 篇二(3),"“The protection and improvement of the human environment is a major issue which affects the well-being of peoples and economic development throughout the world,”read the final declaration from this gathering,the first of a sequence which would lead to the Rio de Janeiro Earth Summit in 1992 and the World Development Summit in Johannesburg three years ago. Hunt through the reports prepared by UN agencies and development groups—many for conferences such as this year’s Millennium Goals review—and you will find that the linkage between environmental protection and economic progress is a common thread.",六级文章
21,六级文章 篇二(4),"Managing ecosystems sustainably is more profitable than exploiting them,according to the Millennium Ecosystem Assessment.But finding hard evidence to support the thesis is not so easy.Thoughts turn first to some sort of global statistic,some indicator which would rate the wealth of nations in both economic and environmental terms and show a relationship between the two.If such an indicator exists,it is well hidden.And on reflection,this is not surprising;the single word“environment”has so many dimensions,and there are so many other factors affecting wealth—such as the oil deposits—that teasing out a simple economy-environment relationship would be almost impossible.",六级文章
22,六级文章 篇二(5),"The Millennium Ecosystem Assessment,a vast four-year global study which reported its initial conclusions earlier this year,found reasons to believe that managing ecosystems sustainably—working with nature rather than against it—might be less profitable in the short term,but certainly brings long-term rewards. And the World Resources Institute(WRI)in its World Resources 2005 report,issued at the end of August,produced several such examples from Africa and Asia;it also demonstrated that environmental degradation affects the poor more than the rich,as poorer people derive a much higher proportion of their income directly from the natural resources around them.",六级文章
23,六级文章 篇二(6),"But there are also many examples of growing wealth by trashing the environment,in rich and poor parts of the world alike,whether through unregulated mineral extraction,drastic water use for agriculture,slash-and-burn farming,or fossil-fuel-guzzlingtransport.Of course,such growth may not persist in the long term—which is what Mr.Brown and the Stockholm declaration were both attempting to point out.Perhaps the best example of boom growth and bust decline is the Grand Banks fishery.For almost five centuries a very large supply of cod provided abundant raw material for an industry which at its peak employed about 40,000 people,sustaining entire communities in Newfoundland.Then,abruptly,the cod population collapsed. There were no longer enough fish in the sea for the stock to maintain itself,let alone an industry.More than a decade later,there was no sign of the ecosystem re-building itself.It had,apparently,been fished out of existence;and the once mighty Newfoundland fleet now gropes about frantically for crab on the sea floor.",六级文章
24,六级文章 篇二(7),"There is a view that modern humans are inevitably sowing the seed of a global Grand Banks-style disaster.The idea is that we are taking more out of what you might call the planet’s environmental bank balance than it can sustain;we are living beyond our ecological means.One recent study attempted to calculate the extent of this“ecological overshoot of the human economy”,and found that we are using 1.2 Earth’s-worth of environmental goods and services—the implication being that at some point the debt will be called in,and all those services—the things which the planet does for us for free—will grind to a halt.",六级文章
25,六级文章 篇二(8),"Whether this is right,and if so where and when the ecological axe will fall,is hard to determine with any precision—which is why governments and financial institutions are only beginning to bring such risks into their economic calculations.It is also the reason why development agencies are not united in their view of environmental issues;while some,like the WRI,maintain that environmental progress needs to go hand-in-hand with economic development,others argue that the priority is to build a thriving economy,and then use the wealth created to tackle environmental degradation.",六级文章
26,六级文章 篇二(9),"This view assumes that rich societies will invest in environmental care.But is this right? Do things get better or worse as we get richer? Here the Stockholm declaration is ambiguous.“In the developing countries,”it says,“most of the environmental problems are caused by under-development.”So it is saying that economic development should make for a cleaner world?Not necessarily;“In the industralised countries,environmental problems are generally related to industrialisation and technological development,”it continues.In other words,poor and rich both over-exploit the natural world,but for different reasons.It’s simply not true that economic growth will surely make our world cleaner.",六级文章
27,六级文章 篇二(10),"Clearly,richer societies are able to provide environmental improvements which lie well beyond the reach of poorer communities.Citizens of wealthy nations demand national parks,clean rivers,clean air and poison-free food.They also,however,use far more natural resources-fuel,water(all those baths and golf courses)and building materials. A case can be made that rich nations export environmental problems,the most graphic example being climate change.As a country’s wealth grows,so do its greenhouse gas emissions.The figures available will not be completely accurate.Measuring emissions is not a precise science, particularly when it comes to issues surrounding land use;not all nations have re-leased up-to-date data,and in any case,emissions from some sectors such as aviation are not included in national statistics.But the data is exact enough for a clear trend to be easily discernible.As countries become richer,they produce more greenhouse gases;and the impact of those gases will fall primarily in poor parts of the world.",六级文章
28,六级文章 篇二(11),"Wealth is not,of course,the only factor involved.The average Norwegian is better off than the average US citizen,but contributes about half as much to climate change.But could Norway keep its standard of living and yet cut its emissions to Moroccan or even Ethiopian levels?That question,repeated across a dozen environmental issues and across our diverse planet,is what will ultimately determine whether the human race is living beyond its ecological means as it pursues economic revival.",六级文章
29,c语言 hello world,"#include <stdio.h>
 
int main()
{
   printf(""Hello, World! \n"");
   
   return 0;
}",c语言
30,c语言 数据类型,"#include <stdio.h>
#include <float.h>
#include <limits.h>
 
int main()
{
   printf(""int 存储大小 : %lu \n"", sizeof(int));
   printf(""float 存储最大字节数 : %lu \n"", sizeof(float));
   printf(""float 最小值: %E\n"", FLT_MIN );
   printf(""float 最大值: %E\n"", FLT_MAX );
   printf(""精度值: %d\n"", FLT_DIG );
   
   return 0;
}",c语言
31,c语言 变量声明,"#include <stdio.h>
 
int x;
int y;
int addtwonum()
{
    extern int x;
    extern int y;
    x = 1;
    y = 2;
    return x+y;
}
 
int main()
{
    int result;
    result = addtwonum();
    printf(""result 为: %d"",result);
    return 0;
}",c语言
32,c语言 宏定义,"#include <stdio.h>
 
#define LENGTH 10   
#define WIDTH  5
#define NEWLINE '\n'
 
int main()
{
 
   int area;  
  
   area = LENGTH * WIDTH;
   printf(""value of area : %d"", area);
   printf(""%c"", NEWLINE);
 
   return 0;
}",c语言
33,c语言 常量,"#include <stdio.h>
 
int main()
{
   const int  LENGTH = 10;
   const int  WIDTH  = 5;
   const char NEWLINE = '\n';
   int area;  
   
   area = LENGTH * WIDTH;
   printf(""value of area : %d"", area);
   printf(""%c"", NEWLINE);
 
   return 0;
}",c语言
34,c语言 算术运算符,"#include <stdio.h>
 
int main()
{
   int a = 21;
   int b = 10;
   int c ;
 
   c = a + b;
   printf(""Line 1 - c 的值是 %d\n"", c );
   c = a - b;
   printf(""Line 2 - c 的值是 %d\n"", c );
   c = a * b;
   printf(""Line 3 - c 的值是 %d\n"", c );
   c = a / b;
   printf(""Line 4 - c 的值是 %d\n"", c );
   c = a % b;
   printf(""Line 5 - c 的值是 %d\n"", c );
   c = a++;
   printf(""Line 6 - c 的值是 %d\n"", c );
   c = a--;
   printf(""Line 7 - c 的值是 %d\n"", c );
}",c语言
35,c语言 关系运算符,"#include <stdio.h>
 
int main()
{
   int a = 21;
   int b = 10;
   int c ;
 
   if( a == b ) printf(""Line 1 - a 等于 b\n"" );
   else printf(""Line 1 - a 不等于 b\n"" );
   if ( a < b ) printf(""Line 2 - a 小于 b\n"" );
   else printf(""Line 2 - a 不小于 b\n"" );
   if ( a > b ) printf(""Line 3 - a 大于 b\n"" );
   else printf(""Line 3 - a 不大于 b\n"" );
   a = 5;
   b = 20;
   if ( a <= b ) printf(""Line 4 - a 小于或等于 b\n"" );
   if ( b >= a ) printf(""Line 5 - b 大于或等于 a\n"" );
}",c语言
36,c语言 逻辑运算符,"#include <stdio.h>
 
int main()
{
   int a = 5;
   int b = 20;
   int c ;
   if ( a && b )
      printf(""Line 1 - 条件为真\n"" );
   if ( a || b )
      printf(""Line 2 - 条件为真\n"" );
   a = 0;
   b = 10;
   if ( a && b )
      printf(""Line 3 - 条件为真\n"" );
   else 
      printf(""Line 3 - 条件为假\n"" );
   if ( !(a && b) )
      printf(""Line 4 - 条件为真\n"" );
}",c语言
37,c语言 位运算符,"#include <stdio.h>
 
int main()
{
   unsigned int a = 60;    /* 60 = 0011 1100 */  
   unsigned int b = 13;    /* 13 = 0000 1101 */
   int c = 0;           
   c = a & b;       /* 12 = 0000 1100 */ 
   printf(""Line 1 - c 的值是 %d\n"", c );
   c = a | b;       /* 61 = 0011 1101 */
   printf(""Line 2 - c 的值是 %d\n"", c );
   c = a ^ b;       /* 49 = 0011 0001 */
   printf(""Line 3 - c 的值是 %d\n"", c );
   c = ~a;          /*-61 = 1100 0011 */
   printf(""Line 4 - c 的值是 %d\n"", c );
   c = a << 2;     /* 240 = 1111 0000 */
   printf(""Line 5 - c 的值是 %d\n"", c );
   c = a >> 2;     /* 15 = 0000 1111 */
   printf(""Line 6 - c 的值是 %d\n"", c );
}",c语言
38,c语言 赋值运算符,"#include <stdio.h>
 
int main()
{
   int a = 21;
   int c ;
   c =  a;
   c +=  a;
   c -=  a;
   c *=  a;
   c /=  a;
   c  = 200;
   c %=  a;
   c <<=  2;
   c >>=  2;
   c &=  2;
   c ^=  2;
   c |=  2;
}",c语言
39,c语言 运算符优先级,"#include <stdio.h>
 
main()
{
   int a = 20;
   int b = 10;
   int c = 15;
   int d = 5;
   int e;
   e = (a + b) * c / d;      // ( 30 * 15 ) / 5
   printf(""(a + b) * c / d 的值是 %d\n"",  e );
   e = ((a + b) * c) / d;    // (30 * 15 ) / 5
   printf(""((a + b) * c) / d 的值是 %d\n"" ,  e );
   e = (a + b) * (c / d);   // (30) * (15/5)
   printf(""(a + b) * (c / d) 的值是 %d\n"",  e );
   e = a + (b * c) / d;     //  20 + (150/5)
   printf(""a + (b * c) / d 的值是 %d\n"" ,  e );
   return 0;
}",c语言
40,c语言 三元运算符,"#include<stdio.h>
 
int main()
{
    int num;
 
    printf(""输入一个数字 : "");
    scanf(""%d"",&num);
 
    (num%2==0)?printf(""偶数""):printf(""奇数"");
}",c语言
41,c语言 函数,"#include <stdio.h>
 
int max(int num1, int num2) 
{
   int result;
   if (num1 > num2)
      result = num1;
   else
      result = num2;
   return result; 
}
 
int main ()
{
   int a = 100;
   int b = 200;
   int ret;
   ret = max(a, b);
   printf( ""Max value is : %d\n"", ret );
   return 0;
}",c语言
42,c语言 数组,"#include <stdio.h>
 
int main ()
{
   int n[ 10 ];
   int i,j;
     
   for ( i = 0; i < 10; i++ )
   {
      n[ i ] = i + 100;
   }
   
   for (j = 0; j < 10; j++ )
   {
      printf(""Element[%d] = %d\n"", j, n[j] );
   }
 
   return 0;
}",c语言
43,c语言 指针,"#include <stdio.h>
 
int main ()
{
   int  var = 20;
   int  *ip;
 
   ip = &var;
 
   printf(""var 变量的地址: %p\n"", &var  );
 
   printf(""ip 变量存储的地址: %p\n"", ip );
 
   printf(""*ip 变量的值: %d\n"", *ip );
 
   return 0;
}",c语言
44,MySQL 创建数据表,"CREATE TABLE IF NOT EXISTS 'tbl'(
   'id' INT UNSIGNED AUTO_INCREMENT,
   'title' VARCHAR(100) NOT NULL,
   'author' VARCHAR(40) NOT NULL,
   'submission_date' DATE,
   PRIMARY KEY ( 'id' )
)ENGINE=InnoDB DEFAULT CHARSET=utf8;",MySQL
45,MySQL 插入数据,"INSERT INTO tbl 
(title, author, submission_date)
VALUES
(""标题1"", ""作者1"", NOW());

INSERT INTO tbl
(title, author, submission_date)
VALUES
(""标题2"", ""作者1"", NOW());

INSERT INTO tbl
(runoob_title, runoob_author, submission_date)
VALUES
(""标题3"", ""author2"", '2016-05-06');",MySQL
46,MySQL 查询数据,"SELECT column_name,column_name
FROM table_name
[WHERE Clause]
[LIMIT N][ OFFSET M]

SELECT *
FROM tbl
WHERE author
== ""作者1""

SELECT id,title
FROM tbl
WHERE author
== ""作者1""",MySQL
47,MySQL 更新、删除数据,"UPDATE table_name SET field1=new-value1, field2=new-value2
[WHERE Clause]

UPDATE tbl SET title='新标题' WHERE id=3;


DELETE FROM table_name [WHERE Clause]

DELETE FROM tbl WHERE id=3;",MySQL
48,MySQL Like语句,"SELECT field1, field2,...fieldN 
FROM table_name
WHERE field1 LIKE condition1 [AND [OR]] filed2 = 'somevalue'

SELECT * 
FROM tbl  
WHERE author LIKE '%2';",MySQL
49,MySQL Union,"SELECT expression1, expression2, ... expression_n
FROM tables
[WHERE conditions]
UNION [ALL | DISTINCT]
SELECT expression1, expression2, ... expression_n
FROM tables
[WHERE conditions];

SELECT country, name FROM Websites
WHERE country='CN'
UNION ALL
SELECT country, app_name FROM apps
WHERE country='CN'
ORDER BY country;",MySQL
50,MySQL 排序,"SELECT field1, field2,...fieldN FROM table_name1, table_name2...
ORDER BY field1 [ASC [DESC][默认 ASC]], [field2...] [ASC [DESC][默认 ASC]]

SELECT * from runoob_tbl ORDER BY submission_date ASC;
SELECT * from runoob_tbl ORDER BY submission_date DESC;",MySQL
51,MySQL 分组,"SELECT column_name, function(column_name)
FROM table_name
WHERE column_name operator value
GROUP BY column_name;

SELECT name, COUNT(*) 
FROM   employee_tbl 
WHERE salary > 5000
GROUP BY name;",MySQL
52,MySQL 链接(JOIN),"SELECT column1, column2, ...
FROM table1
JOIN table2 ON condition;

SELECT Websites.id, Websites.name, access_log.count, access_log.date
FROM Websites
INNER JOIN access_log
ON Websites.id=access_log.site_id;",MySQL
53,MySQL 约束,"CREATE TABLE table_name
(
column_name1 data_type(size) constraint_name,
column_name2 data_type(size) constraint_name,
column_name3 data_type(size) constraint_name,
....
);

create table if not exists per(
  id bigint auto_increment comment '主键',
  name varchar(20) not null comment '人员姓名',
  work_id bigint not null comment '工作id',
  create_time date default '2021-04-02',
  primary key(id),
  foreign key(work_id) references work(id)
)",MySQL
